%YAML 1.1
%TAG !u! tag:unity3d.com,2011:
--- !u!162 &1
EditorUserSettings:
  m_ObjectHideFlags: 0
  serializedVersion: 4
  m_ConfigSettings:
    RecentlyUsedScenePath-0:
      value: 22424703114646680e0b0227036c6c111b07142f1f2b233e2867083debf42d
      flags: 0
    RecentlyUsedScenePath-1:
      value: 22424703114646681d0b0d30286c6c1313191d396305333c39200d3fe3f9312ad1e433e7e2742a323016f6
      flags: 0
    RecentlyUsedScenePath-2:
      value: 224247031146467102171f361920545026161b21630d3e3120391136f1af1120e3ea26e5e27a0c3f3c0cea721130082beb
      flags: 0
    RecentlyUsedScenePath-3:
      value: 22424703114646681d0b0d30286c6c1313191d396305233e381a1e36ece57a2decee22f0
      flags: 0
    RecentlyUsedScenePath-4:
      value: 22424703114646681d0b0d30286c6c1313191d39637a2203283d0823acf53a31f6fe
      flags: 0
    vcSharedLogLevel:
      value: 0d5e400f0650
      flags: 0
  m_VCAutomaticAdd: 1
  m_VCDebugCom: 0
  m_VCDebugCmd: 0
  m_VCDebugOut: 0
  m_SemanticMergeMode: 2
  m_VCShowFailedCheckout: 1
  m_VCOverwriteFailedCheckoutAssets: 1
  m_VCProjectOverlayIcons: 1
  m_VCHierarchyOverlayIcons: 1
  m_VCOtherOverlayIcons: 1
  m_VCAllowAsyncUpdate: 1
